{
  "id": "bfc080aa-4be0-430c-899e-28a31145905e",
  "name": "production",
  "values": [
    {
      "key": "url",
      "value": "api.connectpetsto.me",
      "enabled": true,
      "type": "text"
    }
  ],
  "_postman_variable_scope": "environment",
  "_postman_exported_at": "2018-07-19T20:52:11.503Z",
  "_postman_exported_using": "Postman/6.1.4"
}