{
  "id": "b19c1b9d-285a-47e0-9d1c-be0bd277bfe2",
  "name": "localhost",
  "values": [
    {
      "key": "url",
      "value": "0.0.0.0:5000/api",
      "enabled": true,
      "type": "text"
    },
    {
      "key": "pid",
      "value": "1",
      "enabled": true,
      "type": "text"
    },
    {
      "key": "vid",
      "value": "1",
      "enabled": true,
      "type": "text"
    },
    {
      "key": "sid",
      "value": "1",
      "enabled": true,
      "type": "text"
    },
    {
      "key": "",
      "value": "",
      "description": "",
      "type": "text",
      "enabled": false
    }
  ],
  "_postman_variable_scope": "environment",
  "_postman_exported_at": "2018-07-19T18:55:41.067Z",
  "_postman_exported_using": "Postman/6.1.4"
}