@startuml
Shelter "1..1" *-r- "0..*" Pet: contains >
Pet "1..1" --|> "0..*" Vet : shares location with >
Shelter "0..*" <|--|> "0..*" Vet : shares location with

Pet : species
Pet : breed
Pet : sex
Pet : size
Pet : age
Pet : shelter
Pet : location

Shelter : name
Shelter : location

Vet : name
Vet : location

@enduml
